…
``` r
View(Connections)


Connections %>% 
  count(Company, name = "Total_Count")
```

    ## # A tibble: 388 × 2
    ##    Company                                   Total_Count
    ##    <chr>                                           <int>
    ##  1 11971859 Inc., - Digital Marketing Agency           1
    ##  2 ABB                                                 1
    ##  3 Abbott                                              1
    ##  4 Acadium                                             1
    ##  5 Accenture UK                                        1
    ##  6 Accerta                                             1
    ##  7 Ada                                                 1
    ##  8 Adlib                                               1
    ##  9 Aecon Group Inc.                                    1
    ## 10 Agri-Plastics, Group of Companies                   1
    ## # … with 378 more rows
…
